{
    "componentChunkName": "component---node-modules-gatsby-theme-buzzing-src-gatsby-theme-timeline-templates-posts-query-js",
    "path": "/ja/page/27",
    "result": {"data":{"site":{"siteMetadata":{"title":"经济学人","author":"Buzzing.cc","description":"用中文浏览经济学人","keywords":["buzzing","经济学人"],"siteUrl":"https://economist.buzzing.cc","telegram":"@buzzingcc","iconUrl":"https://economist.buzzing.cc/avatar.jpg","defaultSocialImageUrl":null,"social":[{"name":"The Economist","url":"https://www.economist.com/","external":true},{"name":"Twitter @TheEconomist","url":"https://twitter.com/TheEconomist","external":true},{"name":"Buzzing","url":"https://www.buzzing.cc/","external":true}],"menuLinks":[{"name":"RSS","url":"/rss.xml","external":null}],"disqus":null,"utterances":null,"localize":[{"title":"Buzzing on The Economist","description":"See what's buzzing on The Economist in your native language","keywords":["buzzing","The Economist"],"locale":"en","social":{"name":null,"url":null,"external":null},"menuLinks":[{"name":"RSS","url":"/en/rss.xml","external":null}]},{"title":"經濟學人","description":"用中文瀏覽經濟學人","keywords":["buzzing","經濟學人"],"locale":"zh-Hant","social":null,"menuLinks":[{"name":"RSS","url":"/zh-Hant/rss.xml","external":null}]},{"title":"エコノミスト人気の記事","description":"人気のエコノミスト記事を日本語で閲覧","keywords":["buzzing","エコノミスト"],"locale":"ja","social":null,"menuLinks":[]}]}},"tagsGroup":{"group":[{"fieldValue":"BrighterFutureForGirls","totalCount":8},{"fieldValue":"COP26","totalCount":21},{"fieldValue":"FreeBritney","totalCount":1},{"fieldValue":"Succession","totalCount":1},{"fieldValue":"WorldAhead","totalCount":17},{"fieldValue":"dataviz","totalCount":1},{"fieldValue":"nobelpeaceprize2021","totalCount":3},{"fieldValue":"tweet","totalCount":1305}]},"allBlogPost":{"nodes":[{"id":"TweetPost-1443738840418721796","excerpt":"","slug":"/tweet/1443738840418721796","title":"Xi Jinping’s anti-capitalist campaign is remarkable for its scope and ambition. It has rocked Alibaba, Didi and Evergrande in the past year, destroying perhaps $2trn of wealth https://t.co/PTYxRU3uq4","date":"October 01, 2021","dateISO":"2021-10-01T02:16:13.000Z","datetime":"2021-10-01 02:16","tags":["tweet"],"image":null,"imageAlt":null,"__typename":"SocialMediaPost","provider":"Twitter","thirdPartyId":"1443738840418721796","url":"https://twitter.com/TheEconomist/statuses/1443738840418721796","originalUrl":null,"imageRemote":null,"video":null,"channel":null,"channelUrl":null,"author":"The Economist","authorUrl":"https://twitter.com/TheEconomist","authorImageRemote":"https://pbs.twimg.com/profile_images/879361767914262528/HdRauDM-.jpg","authorImage":null,"authorSlug":"TheEconomist","score":166,"views":null,"sharedCount":33,"likeCount":100,"sharedContent":null,"parent":{"localize":[{"locale":"ja","full_text":"習近平の反資本主義キャンペーンは、その範囲と野心に注目しています。過去1年間にアリババ、ディディ、エバーグランデを揺るがし、おそらく2兆ドルの富を破壊した https://t.co/PTYxRU3uq4","quoted_status_full_text":null,"retweeted_status_full_text":null},{"locale":"zh","full_text":"习近平的反资本主义运动因其范围和雄心而引人注目。在过去的一年里，它震撼了阿里巴巴、滴滴和恒大，摧毁了大约2万亿美元的财富https://t.co/PTYxRU3uq4。","quoted_status_full_text":null,"retweeted_status_full_text":null},{"locale":"zh-Hant","full_text":"習近平的反資本主義運動因其範圍和雄心而引人注目。在過去的一年裏，它震撼了阿里巴巴、滴滴和恆大，摧毀了大約2萬億美元的財富https://t.co/PTYxRU3uq4。","quoted_status_full_text":null,"retweeted_status_full_text":null}]}},{"id":"TweetPost-1443752682620084225","excerpt":"","slug":"/tweet/1443752682620084225","title":"Adjusting for population, the daily death rate is now about eight times higher in America than in the rest of the rich world https://t.co/zYarp2BMyG","date":"October 01, 2021","dateISO":"2021-10-01T02:16:13.000Z","datetime":"2021-10-01 02:16","tags":["tweet"],"image":null,"imageAlt":null,"__typename":"SocialMediaPost","provider":"Twitter","thirdPartyId":"1443752682620084225","url":"https://twitter.com/TheEconomist/statuses/1443752682620084225","originalUrl":null,"imageRemote":null,"video":null,"channel":null,"channelUrl":null,"author":"The Economist","authorUrl":"https://twitter.com/TheEconomist","authorImageRemote":"https://pbs.twimg.com/profile_images/879361767914262528/HdRauDM-.jpg","authorImage":null,"authorSlug":"TheEconomist","score":198,"views":null,"sharedCount":60,"likeCount":78,"sharedContent":null,"parent":{"localize":[{"locale":"ja","full_text":"人口を調整すると、アメリカの1日の死亡率は、他の豊かな国の約8倍になります。https://t.co/zYarp2BMyG","quoted_status_full_text":null,"retweeted_status_full_text":null},{"locale":"zh","full_text":"按人口调整后，现在美国的日死亡率比其他富裕国家高约八倍 https://t.co/zYarp2BMyG","quoted_status_full_text":null,"retweeted_status_full_text":null},{"locale":"zh-Hant","full_text":"按人口調整後，現在美國的日死亡率比其他富裕國家高約八倍 https://t.co/zYarp2BMyG","quoted_status_full_text":null,"retweeted_status_full_text":null}]}},{"id":"TweetPost-1443667005329051650","excerpt":"","slug":"/tweet/1443667005329051650","title":"The world’s official covid-19 death count is 4.8m, but our new machine-learning model estimates that between 9.8m and 18.5m people have died https://t.co/1vYWzPhTEr","date":"October 01, 2021","dateISO":"2021-10-01T01:12:49.000Z","datetime":"2021-10-01 01:12","tags":["tweet"],"image":null,"imageAlt":null,"__typename":"SocialMediaPost","provider":"Twitter","thirdPartyId":"1443667005329051650","url":"https://twitter.com/TheEconomist/statuses/1443667005329051650","originalUrl":null,"imageRemote":null,"video":null,"channel":null,"channelUrl":null,"author":"The Economist","authorUrl":"https://twitter.com/TheEconomist","authorImageRemote":"https://pbs.twimg.com/profile_images/879361767914262528/HdRauDM-.jpg","authorImage":null,"authorSlug":"TheEconomist","score":158,"views":null,"sharedCount":39,"likeCount":80,"sharedContent":null,"parent":{"localize":[{"locale":"ja","full_text":"世界の公式なcovid-19の死亡者数は480万人ですが、我々の新しい機械学習モデルでは、980万人から1850万人が死亡したと推定しています。https://t.co/1vYWzPhTEr","quoted_status_full_text":null,"retweeted_status_full_text":null},{"locale":"zh","full_text":"世界上官方的covid-19死亡人数为480万，但我们新的机器学习模型估计有980万至1850万人死亡，https://t.co/1vYWzPhTEr。","quoted_status_full_text":null,"retweeted_status_full_text":null},{"locale":"zh-Hant","full_text":"世界上官方的covid-19死亡人數爲480萬，但我們新的機器學習模型估計有980萬至1850萬人死亡，https://t.co/1vYWzPhTEr。","quoted_status_full_text":null,"retweeted_status_full_text":null}]}},{"id":"TweetPost-1443682088520126466","excerpt":"","slug":"/tweet/1443682088520126466","title":"\"Bodies with vaginas\" and \"birthing people\" are strange ways to refer to half of humanity https://t.co/ZyCNzGDZIU","date":"October 01, 2021","dateISO":"2021-10-01T01:12:49.000Z","datetime":"2021-10-01 01:12","tags":["tweet"],"image":null,"imageAlt":null,"__typename":"SocialMediaPost","provider":"Twitter","thirdPartyId":"1443682088520126466","url":"https://twitter.com/TheEconomist/statuses/1443682088520126466","originalUrl":null,"imageRemote":null,"video":null,"channel":null,"channelUrl":null,"author":"The Economist","authorUrl":"https://twitter.com/TheEconomist","authorImageRemote":"https://pbs.twimg.com/profile_images/879361767914262528/HdRauDM-.jpg","authorImage":null,"authorSlug":"TheEconomist","score":156,"views":null,"sharedCount":34,"likeCount":88,"sharedContent":null,"parent":{"localize":[{"locale":"ja","full_text":"\"Bodies with Vaginas \"や \"Birthing People \"は、人類の半分を指す奇妙な表現です。https://t.co/ZyCNzGDZIU","quoted_status_full_text":null,"retweeted_status_full_text":null},{"locale":"zh","full_text":"\"有阴道的身体 \"和 \"生孩子的人 \"是指称一半人类的奇怪方式 https://t.co/ZyCNzGDZIU","quoted_status_full_text":null,"retweeted_status_full_text":null},{"locale":"zh-Hant","full_text":"\"有陰道的身體 \"和 \"生孩子的人 \"是指稱一半人類的奇怪方式 https://t.co/ZyCNzGDZIU","quoted_status_full_text":null,"retweeted_status_full_text":null}]}},{"id":"TweetPost-1443724787801542661","excerpt":"","slug":"/tweet/1443724787801542661","title":"There was no evidence to prove that anyone outside northern Europe had heard of America until Columbus’s voyage in 1492. Until now  https://t.co/uC46pxlCwx","date":"October 01, 2021","dateISO":"2021-10-01T01:12:49.000Z","datetime":"2021-10-01 01:12","tags":["tweet"],"image":null,"imageAlt":null,"__typename":"SocialMediaPost","provider":"Twitter","thirdPartyId":"1443724787801542661","url":"https://twitter.com/TheEconomist/statuses/1443724787801542661","originalUrl":null,"imageRemote":null,"video":null,"channel":null,"channelUrl":null,"author":"The Economist","authorUrl":"https://twitter.com/TheEconomist","authorImageRemote":"https://pbs.twimg.com/profile_images/879361767914262528/HdRauDM-.jpg","authorImage":null,"authorSlug":"TheEconomist","score":202,"views":null,"sharedCount":49,"likeCount":104,"sharedContent":null,"parent":{"localize":[{"locale":"ja","full_text":"1492年にコロンブスが航海するまで、北欧以外の人がアメリカを知っていたことを証明する証拠はなかった。今までhttps://t.co/uC46pxlCwx","quoted_status_full_text":null,"retweeted_status_full_text":null},{"locale":"zh","full_text":"在哥伦布1492年的航行之前，没有证据证明北欧以外的任何人听说过美洲。直到现在https://t.co/uC46pxlCwx","quoted_status_full_text":null,"retweeted_status_full_text":null},{"locale":"zh-Hant","full_text":"在哥倫布1492年的航行之前，沒有證據證明北歐以外的任何人聽說過美洲。直到現在https://t.co/uC46pxlCwx","quoted_status_full_text":null,"retweeted_status_full_text":null}]}}]}},"pageContext":{"basePath":"/","pageType":"home","tagsFilter":{"date":{"gt":"2000-12-25T10:54:58.000Z"}},"filter":{"date":{"gt":"2000-12-25T10:54:58.000Z"}},"limit":50,"skip":1300,"totalPages":27,"total":1305,"currentPage":27,"maxWidth":1024,"maxHeight":512,"siteMetadata":null,"locale":"ja","hrefLang":"ja-JA","originalPath":"/page/27","dateFormat":"YYYY-MM-DD"}},
    "staticQueryHashes": ["1239077767","2744905544","3025052997","3280999885"]}