{
    "componentChunkName": "component---node-modules-gatsby-theme-buzzing-src-gatsby-theme-timeline-templates-posts-query-js",
    "path": "/page/28",
    "result": {"data":{"site":{"siteMetadata":{"title":"经济学人","author":"Buzzing.cc","description":"用中文浏览经济学人","keywords":["buzzing","经济学人"],"siteUrl":"https://economist.buzzing.cc","telegram":"@buzzingcc","iconUrl":"https://economist.buzzing.cc/avatar.jpg","defaultSocialImageUrl":null,"social":[{"name":"The Economist","url":"https://www.economist.com/","external":true},{"name":"Twitter @TheEconomist","url":"https://twitter.com/TheEconomist","external":true},{"name":"Buzzing","url":"https://www.buzzing.cc/","external":true}],"menuLinks":[{"name":"RSS","url":"/rss.xml","external":null}],"disqus":null,"utterances":null,"localize":[{"title":"Buzzing on The Economist","description":"See what's buzzing on The Economist in your native language","keywords":["buzzing","The Economist"],"locale":"en","social":{"name":null,"url":null,"external":null},"menuLinks":[{"name":"RSS","url":"/en/rss.xml","external":null}]},{"title":"經濟學人","description":"用中文瀏覽經濟學人","keywords":["buzzing","經濟學人"],"locale":"zh-Hant","social":null,"menuLinks":[{"name":"RSS","url":"/zh-Hant/rss.xml","external":null}]},{"title":"エコノミスト人気の記事","description":"人気のエコノミスト記事を日本語で閲覧","keywords":["buzzing","エコノミスト"],"locale":"ja","social":null,"menuLinks":[]}]}},"tagsGroup":{"group":[{"fieldValue":"BrighterFutureForGirls","totalCount":8},{"fieldValue":"COP26","totalCount":21},{"fieldValue":"FreeBritney","totalCount":1},{"fieldValue":"Succession","totalCount":1},{"fieldValue":"WorldAhead","totalCount":17},{"fieldValue":"dataviz","totalCount":1},{"fieldValue":"nobelpeaceprize2021","totalCount":3},{"fieldValue":"tweet","totalCount":1361}]},"allBlogPost":{"nodes":[{"id":"TweetPost-1443578812831191049","excerpt":"","slug":"/tweet/1443578812831191049","title":"London’s high-flying stockmarket has spent the past decade tumbling back to earth. Our cover in Britain this week outlines how to revive it https://t.co/fxNqKJNicM https://t.co/pPi7b3qGcD","date":"October 01, 2021","dateISO":"2021-10-01T09:00:59.000Z","datetime":"2021-10-01 09:00","tags":["tweet"],"image":null,"imageAlt":"Tweet Image","__typename":"SocialMediaPost","provider":"Twitter","thirdPartyId":"1443578812831191049","url":"https://twitter.com/TheEconomist/statuses/1443578812831191049","originalUrl":null,"imageRemote":"https://pbs.twimg.com/media/FAifR5MVcAQb62S.jpg","video":null,"channel":null,"channelUrl":null,"author":"The Economist","authorUrl":"https://twitter.com/TheEconomist","authorImageRemote":"https://pbs.twimg.com/profile_images/879361767914262528/HdRauDM-.jpg","authorImage":null,"authorSlug":"TheEconomist","score":151,"views":null,"sharedCount":18,"likeCount":115,"sharedContent":null,"parent":{"localize":[{"locale":"ja","full_text":"ロンドンの株式市場は、過去10年間で大きく変動しました。今週の英国での取材では、この市場を復活させる方法を紹介しています。 https://t.co/fxNqKJNicM https://t.co/pPi7b3qGcD","quoted_status_full_text":null,"retweeted_status_full_text":null},{"locale":"zh","full_text":"伦敦高高在上的股票市场在过去十年中跌回了地面。我们本周在英国的封面报道概述了如何恢复它的活力 https://t.co/fxNqKJNicM https://t.co/pPi7b3qGcD","quoted_status_full_text":null,"retweeted_status_full_text":null},{"locale":"zh-Hant","full_text":"倫敦高高在上的股票市場在過去十年中跌回了地面。我們本週在英國的封面報道概述瞭如何恢復它的活力 https://t.co/fxNqKJNicM https://t.co/pPi7b3qGcD","quoted_status_full_text":null,"retweeted_status_full_text":null}]}},{"id":"TweetPost-1443783527586275337","excerpt":"","slug":"/tweet/1443783527586275337","title":"Among those who voted for Donald Trump in 2020, 31% say they will not get vaccinated, according to our recent poll with YouGov https://t.co/gNVTe3RUzL","date":"October 01, 2021","dateISO":"2021-10-01T07:07:22.000Z","datetime":"2021-10-01 07:07","tags":["tweet"],"image":null,"imageAlt":null,"__typename":"SocialMediaPost","provider":"Twitter","thirdPartyId":"1443783527586275337","url":"https://twitter.com/TheEconomist/statuses/1443783527586275337","originalUrl":null,"imageRemote":null,"video":null,"channel":null,"channelUrl":null,"author":"The Economist","authorUrl":"https://twitter.com/TheEconomist","authorImageRemote":"https://pbs.twimg.com/profile_images/879361767914262528/HdRauDM-.jpg","authorImage":null,"authorSlug":"TheEconomist","score":151,"views":null,"sharedCount":27,"likeCount":97,"sharedContent":null,"parent":{"localize":[{"locale":"ja","full_text":"2020年にドナルド・トランプ氏に投票した人のうち、31％がワクチンを接種しないと答えていることが、YouGov社との最新の世論調査で判明しました https://t.co/gNVTe3RUzL","quoted_status_full_text":null,"retweeted_status_full_text":null},{"locale":"zh","full_text":"根据我们最近与YouGov的民意调查，在2020年投票给唐纳德-特朗普的人中，31%的人说他们不会接种疫苗，https://t.co/gNVTe3RUzL","quoted_status_full_text":null,"retweeted_status_full_text":null},{"locale":"zh-Hant","full_text":"根據我們最近與YouGov的民意調查，在2020年投票給唐納德-特朗普的人中，31%的人說他們不會接種疫苗，https://t.co/gNVTe3RUzL","quoted_status_full_text":null,"retweeted_status_full_text":null}]}},{"id":"TweetPost-1443624038862147584","excerpt":"","slug":"/tweet/1443624038862147584","title":"Vertical farms don't have soil and crops are planted on top of each other   https://t.co/6pFPoUFX2d","date":"October 01, 2021","dateISO":"2021-10-01T05:21:34.000Z","datetime":"2021-10-01 05:21","tags":["tweet"],"image":null,"imageAlt":null,"__typename":"SocialMediaPost","provider":"Twitter","thirdPartyId":"1443624038862147584","url":"https://twitter.com/TheEconomist/statuses/1443624038862147584","originalUrl":null,"imageRemote":null,"video":null,"channel":null,"channelUrl":null,"author":"The Economist","authorUrl":"https://twitter.com/TheEconomist","authorImageRemote":"https://pbs.twimg.com/profile_images/879361767914262528/HdRauDM-.jpg","authorImage":null,"authorSlug":"TheEconomist","score":152,"views":null,"sharedCount":28,"likeCount":96,"sharedContent":null,"parent":{"localize":[{"locale":"ja","full_text":"垂直農法は土がなく、作物を重ねて植える https://t.co/6pFPoUFX2d","quoted_status_full_text":null,"retweeted_status_full_text":null},{"locale":"zh","full_text":"垂直农场没有土壤，作物被种植在彼此的顶部https://t.co/6pFPoUFX2d。","quoted_status_full_text":null,"retweeted_status_full_text":null},{"locale":"zh-Hant","full_text":"垂直農場沒有土壤，作物被種植在彼此的頂部https://t.co/6pFPoUFX2d。","quoted_status_full_text":null,"retweeted_status_full_text":null}]}},{"id":"TweetPost-1443701949556273153","excerpt":"","slug":"/tweet/1443701949556273153","title":"Lab-grown meat could play an essential role in staving off a climate catastrophe https://t.co/dhbvPnkOFX","date":"October 01, 2021","dateISO":"2021-10-01T05:21:34.000Z","datetime":"2021-10-01 05:21","tags":["tweet"],"image":null,"imageAlt":null,"__typename":"SocialMediaPost","provider":"Twitter","thirdPartyId":"1443701949556273153","url":"https://twitter.com/TheEconomist/statuses/1443701949556273153","originalUrl":null,"imageRemote":null,"video":null,"channel":null,"channelUrl":null,"author":"The Economist","authorUrl":"https://twitter.com/TheEconomist","authorImageRemote":"https://pbs.twimg.com/profile_images/879361767914262528/HdRauDM-.jpg","authorImage":null,"authorSlug":"TheEconomist","score":153,"views":null,"sharedCount":33,"likeCount":87,"sharedContent":null,"parent":{"localize":[{"locale":"ja","full_text":"実験室で作られた肉は、気候の大変動を食い止めるために不可欠な役割を果たす https://t.co/dhbvPnkOFX","quoted_status_full_text":null,"retweeted_status_full_text":null},{"locale":"zh","full_text":"实验室培植的肉类可以在避免气候灾难中发挥重要作用 https://t.co/dhbvPnkOFX","quoted_status_full_text":null,"retweeted_status_full_text":null},{"locale":"zh-Hant","full_text":"實驗室培植的肉類可以在避免氣候災難中發揮重要作用 https://t.co/dhbvPnkOFX","quoted_status_full_text":null,"retweeted_status_full_text":null}]}},{"id":"TweetPost-1443792178724102146","excerpt":"","slug":"/tweet/1443792178724102146","title":"Doing without beef from live cattle is hard to imagine, but the same was true of coal 100 years ago https://t.co/MnFAKRfeje","date":"October 01, 2021","dateISO":"2021-10-01T04:45:41.000Z","datetime":"2021-10-01 04:45","tags":["tweet"],"image":null,"imageAlt":null,"__typename":"SocialMediaPost","provider":"Twitter","thirdPartyId":"1443792178724102146","url":"https://twitter.com/TheEconomist/statuses/1443792178724102146","originalUrl":null,"imageRemote":null,"video":null,"channel":null,"channelUrl":null,"author":"The Economist","authorUrl":"https://twitter.com/TheEconomist","authorImageRemote":"https://pbs.twimg.com/profile_images/879361767914262528/HdRauDM-.jpg","authorImage":null,"authorSlug":"TheEconomist","score":156,"views":null,"sharedCount":33,"likeCount":90,"sharedContent":null,"parent":{"localize":[{"locale":"ja","full_text":"生きた牛から作られる牛肉がなくなることは想像に難くありませんが、100年前の石炭も同じでした。https://t.co/MnFAKRfeje","quoted_status_full_text":null,"retweeted_status_full_text":null},{"locale":"zh","full_text":"没有活牛的牛肉是很难想象的，但100年前的煤炭也是如此https://t.co/MnFAKRfeje。","quoted_status_full_text":null,"retweeted_status_full_text":null},{"locale":"zh-Hant","full_text":"沒有活牛的牛肉是很難想象的，但100年前的煤炭也是如此https://t.co/MnFAKRfeje。","quoted_status_full_text":null,"retweeted_status_full_text":null}]}},{"id":"TweetPost-1443760081477177347","excerpt":"","slug":"/tweet/1443760081477177347","title":"It is not hard to see why investors are excited https://t.co/CsKubZqiSN","date":"October 01, 2021","dateISO":"2021-10-01T04:19:27.000Z","datetime":"2021-10-01 04:19","tags":["tweet"],"image":null,"imageAlt":null,"__typename":"SocialMediaPost","provider":"Twitter","thirdPartyId":"1443760081477177347","url":"https://twitter.com/TheEconomist/statuses/1443760081477177347","originalUrl":null,"imageRemote":null,"video":null,"channel":null,"channelUrl":null,"author":"The Economist","authorUrl":"https://twitter.com/TheEconomist","authorImageRemote":"https://pbs.twimg.com/profile_images/879361767914262528/HdRauDM-.jpg","authorImage":null,"authorSlug":"TheEconomist","score":153,"views":null,"sharedCount":27,"likeCount":99,"sharedContent":null,"parent":{"localize":[{"locale":"ja","full_text":"投資家が https://t.co/CsKubZqiSN に興奮するのも無理はないだろう。","quoted_status_full_text":null,"retweeted_status_full_text":null},{"locale":"zh","full_text":"不难看出，投资者为何兴奋不已 https://t.co/CsKubZqiSN","quoted_status_full_text":null,"retweeted_status_full_text":null},{"locale":"zh-Hant","full_text":"不難看出，投資者爲何興奮不已 https://t.co/CsKubZqiSN","quoted_status_full_text":null,"retweeted_status_full_text":null}]}},{"id":"TweetPost-1443738840418721796","excerpt":"","slug":"/tweet/1443738840418721796","title":"Xi Jinping’s anti-capitalist campaign is remarkable for its scope and ambition. It has rocked Alibaba, Didi and Evergrande in the past year, destroying perhaps $2trn of wealth https://t.co/PTYxRU3uq4","date":"October 01, 2021","dateISO":"2021-10-01T02:16:13.000Z","datetime":"2021-10-01 02:16","tags":["tweet"],"image":null,"imageAlt":null,"__typename":"SocialMediaPost","provider":"Twitter","thirdPartyId":"1443738840418721796","url":"https://twitter.com/TheEconomist/statuses/1443738840418721796","originalUrl":null,"imageRemote":null,"video":null,"channel":null,"channelUrl":null,"author":"The Economist","authorUrl":"https://twitter.com/TheEconomist","authorImageRemote":"https://pbs.twimg.com/profile_images/879361767914262528/HdRauDM-.jpg","authorImage":null,"authorSlug":"TheEconomist","score":166,"views":null,"sharedCount":33,"likeCount":100,"sharedContent":null,"parent":{"localize":[{"locale":"ja","full_text":"習近平の反資本主義キャンペーンは、その範囲と野心に注目しています。過去1年間にアリババ、ディディ、エバーグランデを揺るがし、おそらく2兆ドルの富を破壊した https://t.co/PTYxRU3uq4","quoted_status_full_text":null,"retweeted_status_full_text":null},{"locale":"zh","full_text":"习近平的反资本主义运动因其范围和雄心而引人注目。在过去的一年里，它震撼了阿里巴巴、滴滴和恒大，摧毁了大约2万亿美元的财富https://t.co/PTYxRU3uq4。","quoted_status_full_text":null,"retweeted_status_full_text":null},{"locale":"zh-Hant","full_text":"習近平的反資本主義運動因其範圍和雄心而引人注目。在過去的一年裏，它震撼了阿里巴巴、滴滴和恆大，摧毀了大約2萬億美元的財富https://t.co/PTYxRU3uq4。","quoted_status_full_text":null,"retweeted_status_full_text":null}]}},{"id":"TweetPost-1443752682620084225","excerpt":"","slug":"/tweet/1443752682620084225","title":"Adjusting for population, the daily death rate is now about eight times higher in America than in the rest of the rich world https://t.co/zYarp2BMyG","date":"October 01, 2021","dateISO":"2021-10-01T02:16:13.000Z","datetime":"2021-10-01 02:16","tags":["tweet"],"image":null,"imageAlt":null,"__typename":"SocialMediaPost","provider":"Twitter","thirdPartyId":"1443752682620084225","url":"https://twitter.com/TheEconomist/statuses/1443752682620084225","originalUrl":null,"imageRemote":null,"video":null,"channel":null,"channelUrl":null,"author":"The Economist","authorUrl":"https://twitter.com/TheEconomist","authorImageRemote":"https://pbs.twimg.com/profile_images/879361767914262528/HdRauDM-.jpg","authorImage":null,"authorSlug":"TheEconomist","score":198,"views":null,"sharedCount":60,"likeCount":78,"sharedContent":null,"parent":{"localize":[{"locale":"ja","full_text":"人口を調整すると、アメリカの1日の死亡率は、他の豊かな国の約8倍になります。https://t.co/zYarp2BMyG","quoted_status_full_text":null,"retweeted_status_full_text":null},{"locale":"zh","full_text":"按人口调整后，现在美国的日死亡率比其他富裕国家高约八倍 https://t.co/zYarp2BMyG","quoted_status_full_text":null,"retweeted_status_full_text":null},{"locale":"zh-Hant","full_text":"按人口調整後，現在美國的日死亡率比其他富裕國家高約八倍 https://t.co/zYarp2BMyG","quoted_status_full_text":null,"retweeted_status_full_text":null}]}},{"id":"TweetPost-1443667005329051650","excerpt":"","slug":"/tweet/1443667005329051650","title":"The world’s official covid-19 death count is 4.8m, but our new machine-learning model estimates that between 9.8m and 18.5m people have died https://t.co/1vYWzPhTEr","date":"October 01, 2021","dateISO":"2021-10-01T01:12:49.000Z","datetime":"2021-10-01 01:12","tags":["tweet"],"image":null,"imageAlt":null,"__typename":"SocialMediaPost","provider":"Twitter","thirdPartyId":"1443667005329051650","url":"https://twitter.com/TheEconomist/statuses/1443667005329051650","originalUrl":null,"imageRemote":null,"video":null,"channel":null,"channelUrl":null,"author":"The Economist","authorUrl":"https://twitter.com/TheEconomist","authorImageRemote":"https://pbs.twimg.com/profile_images/879361767914262528/HdRauDM-.jpg","authorImage":null,"authorSlug":"TheEconomist","score":158,"views":null,"sharedCount":39,"likeCount":80,"sharedContent":null,"parent":{"localize":[{"locale":"ja","full_text":"世界の公式なcovid-19の死亡者数は480万人ですが、我々の新しい機械学習モデルでは、980万人から1850万人が死亡したと推定しています。https://t.co/1vYWzPhTEr","quoted_status_full_text":null,"retweeted_status_full_text":null},{"locale":"zh","full_text":"世界上官方的covid-19死亡人数为480万，但我们新的机器学习模型估计有980万至1850万人死亡，https://t.co/1vYWzPhTEr。","quoted_status_full_text":null,"retweeted_status_full_text":null},{"locale":"zh-Hant","full_text":"世界上官方的covid-19死亡人數爲480萬，但我們新的機器學習模型估計有980萬至1850萬人死亡，https://t.co/1vYWzPhTEr。","quoted_status_full_text":null,"retweeted_status_full_text":null}]}},{"id":"TweetPost-1443682088520126466","excerpt":"","slug":"/tweet/1443682088520126466","title":"\"Bodies with vaginas\" and \"birthing people\" are strange ways to refer to half of humanity https://t.co/ZyCNzGDZIU","date":"October 01, 2021","dateISO":"2021-10-01T01:12:49.000Z","datetime":"2021-10-01 01:12","tags":["tweet"],"image":null,"imageAlt":null,"__typename":"SocialMediaPost","provider":"Twitter","thirdPartyId":"1443682088520126466","url":"https://twitter.com/TheEconomist/statuses/1443682088520126466","originalUrl":null,"imageRemote":null,"video":null,"channel":null,"channelUrl":null,"author":"The Economist","authorUrl":"https://twitter.com/TheEconomist","authorImageRemote":"https://pbs.twimg.com/profile_images/879361767914262528/HdRauDM-.jpg","authorImage":null,"authorSlug":"TheEconomist","score":156,"views":null,"sharedCount":34,"likeCount":88,"sharedContent":null,"parent":{"localize":[{"locale":"ja","full_text":"\"Bodies with Vaginas \"や \"Birthing People \"は、人類の半分を指す奇妙な表現です。https://t.co/ZyCNzGDZIU","quoted_status_full_text":null,"retweeted_status_full_text":null},{"locale":"zh","full_text":"\"有阴道的身体 \"和 \"生孩子的人 \"是指称一半人类的奇怪方式 https://t.co/ZyCNzGDZIU","quoted_status_full_text":null,"retweeted_status_full_text":null},{"locale":"zh-Hant","full_text":"\"有陰道的身體 \"和 \"生孩子的人 \"是指稱一半人類的奇怪方式 https://t.co/ZyCNzGDZIU","quoted_status_full_text":null,"retweeted_status_full_text":null}]}},{"id":"TweetPost-1443724787801542661","excerpt":"","slug":"/tweet/1443724787801542661","title":"There was no evidence to prove that anyone outside northern Europe had heard of America until Columbus’s voyage in 1492. Until now  https://t.co/uC46pxlCwx","date":"October 01, 2021","dateISO":"2021-10-01T01:12:49.000Z","datetime":"2021-10-01 01:12","tags":["tweet"],"image":null,"imageAlt":null,"__typename":"SocialMediaPost","provider":"Twitter","thirdPartyId":"1443724787801542661","url":"https://twitter.com/TheEconomist/statuses/1443724787801542661","originalUrl":null,"imageRemote":null,"video":null,"channel":null,"channelUrl":null,"author":"The Economist","authorUrl":"https://twitter.com/TheEconomist","authorImageRemote":"https://pbs.twimg.com/profile_images/879361767914262528/HdRauDM-.jpg","authorImage":null,"authorSlug":"TheEconomist","score":202,"views":null,"sharedCount":49,"likeCount":104,"sharedContent":null,"parent":{"localize":[{"locale":"ja","full_text":"1492年にコロンブスが航海するまで、北欧以外の人がアメリカを知っていたことを証明する証拠はなかった。今までhttps://t.co/uC46pxlCwx","quoted_status_full_text":null,"retweeted_status_full_text":null},{"locale":"zh","full_text":"在哥伦布1492年的航行之前，没有证据证明北欧以外的任何人听说过美洲。直到现在https://t.co/uC46pxlCwx","quoted_status_full_text":null,"retweeted_status_full_text":null},{"locale":"zh-Hant","full_text":"在哥倫布1492年的航行之前，沒有證據證明北歐以外的任何人聽說過美洲。直到現在https://t.co/uC46pxlCwx","quoted_status_full_text":null,"retweeted_status_full_text":null}]}}]}},"pageContext":{"basePath":"/","pageType":"home","tagsFilter":{"date":{"gt":"2000-12-25T10:54:58.000Z"}},"filter":{"date":{"gt":"2000-12-25T10:54:58.000Z"}},"limit":50,"skip":1350,"totalPages":28,"total":1361,"currentPage":28,"maxWidth":1024,"maxHeight":512,"siteMetadata":null,"locale":"zh","hrefLang":"zh-Hans","originalPath":"/page/28","dateFormat":"YYYY-MM-DD"}},
    "staticQueryHashes": ["1239077767","2744905544","3025052997","3280999885"]}