{
    "componentChunkName": "component---node-modules-gatsby-theme-buzzing-src-gatsby-theme-timeline-templates-posts-query-js",
    "path": "/zh-Hant/page/27",
    "result": {"data":{"site":{"siteMetadata":{"title":"经济学人","author":"Buzzing.cc","description":"用中文浏览经济学人","keywords":["buzzing","经济学人"],"siteUrl":"https://economist.buzzing.cc","telegram":"@buzzingcc","iconUrl":"https://economist.buzzing.cc/avatar.jpg","defaultSocialImageUrl":null,"social":[{"name":"The Economist","url":"https://www.economist.com/","external":true},{"name":"Twitter @TheEconomist","url":"https://twitter.com/TheEconomist","external":true},{"name":"Buzzing","url":"https://www.buzzing.cc/","external":true}],"menuLinks":[{"name":"RSS","url":"/rss.xml","external":null}],"disqus":null,"utterances":null,"localize":[{"title":"Buzzing on The Economist","description":"See what's buzzing on The Economist in your native language","keywords":["buzzing","The Economist"],"locale":"en","social":{"name":null,"url":null,"external":null},"menuLinks":[{"name":"RSS","url":"/en/rss.xml","external":null}]},{"title":"經濟學人","description":"用中文瀏覽經濟學人","keywords":["buzzing","經濟學人"],"locale":"zh-Hant","social":null,"menuLinks":[{"name":"RSS","url":"/zh-Hant/rss.xml","external":null}]},{"title":"エコノミスト人気の記事","description":"人気のエコノミスト記事を日本語で閲覧","keywords":["buzzing","エコノミスト"],"locale":"ja","social":null,"menuLinks":[]}]}},"tagsGroup":{"group":[{"fieldValue":"BrighterFutureForGirls","totalCount":8},{"fieldValue":"COP26","totalCount":21},{"fieldValue":"FreeBritney","totalCount":1},{"fieldValue":"Succession","totalCount":1},{"fieldValue":"WorldAhead","totalCount":17},{"fieldValue":"dataviz","totalCount":1},{"fieldValue":"nobelpeaceprize2021","totalCount":3},{"fieldValue":"tweet","totalCount":1302}]},"allBlogPost":{"nodes":[{"id":"TweetPost-1443682088520126466","excerpt":"","slug":"/tweet/1443682088520126466","title":"\"Bodies with vaginas\" and \"birthing people\" are strange ways to refer to half of humanity https://t.co/ZyCNzGDZIU","date":"October 01, 2021","dateISO":"2021-10-01T01:12:49.000Z","datetime":"2021-10-01 01:12","tags":["tweet"],"image":null,"imageAlt":null,"__typename":"SocialMediaPost","provider":"Twitter","thirdPartyId":"1443682088520126466","url":"https://twitter.com/TheEconomist/statuses/1443682088520126466","originalUrl":null,"imageRemote":null,"video":null,"channel":null,"channelUrl":null,"author":"The Economist","authorUrl":"https://twitter.com/TheEconomist","authorImageRemote":"https://pbs.twimg.com/profile_images/879361767914262528/HdRauDM-.jpg","authorImage":null,"authorSlug":"TheEconomist","score":156,"views":null,"sharedCount":34,"likeCount":88,"sharedContent":null,"parent":{"localize":[{"locale":"ja","full_text":"\"Bodies with Vaginas \"や \"Birthing People \"は、人類の半分を指す奇妙な表現です。https://t.co/ZyCNzGDZIU","quoted_status_full_text":null,"retweeted_status_full_text":null},{"locale":"zh","full_text":"\"有阴道的身体 \"和 \"生孩子的人 \"是指称一半人类的奇怪方式 https://t.co/ZyCNzGDZIU","quoted_status_full_text":null,"retweeted_status_full_text":null},{"locale":"zh-Hant","full_text":"\"有陰道的身體 \"和 \"生孩子的人 \"是指稱一半人類的奇怪方式 https://t.co/ZyCNzGDZIU","quoted_status_full_text":null,"retweeted_status_full_text":null}]}},{"id":"TweetPost-1443724787801542661","excerpt":"","slug":"/tweet/1443724787801542661","title":"There was no evidence to prove that anyone outside northern Europe had heard of America until Columbus’s voyage in 1492. Until now  https://t.co/uC46pxlCwx","date":"October 01, 2021","dateISO":"2021-10-01T01:12:49.000Z","datetime":"2021-10-01 01:12","tags":["tweet"],"image":null,"imageAlt":null,"__typename":"SocialMediaPost","provider":"Twitter","thirdPartyId":"1443724787801542661","url":"https://twitter.com/TheEconomist/statuses/1443724787801542661","originalUrl":null,"imageRemote":null,"video":null,"channel":null,"channelUrl":null,"author":"The Economist","authorUrl":"https://twitter.com/TheEconomist","authorImageRemote":"https://pbs.twimg.com/profile_images/879361767914262528/HdRauDM-.jpg","authorImage":null,"authorSlug":"TheEconomist","score":202,"views":null,"sharedCount":49,"likeCount":104,"sharedContent":null,"parent":{"localize":[{"locale":"ja","full_text":"1492年にコロンブスが航海するまで、北欧以外の人がアメリカを知っていたことを証明する証拠はなかった。今までhttps://t.co/uC46pxlCwx","quoted_status_full_text":null,"retweeted_status_full_text":null},{"locale":"zh","full_text":"在哥伦布1492年的航行之前，没有证据证明北欧以外的任何人听说过美洲。直到现在https://t.co/uC46pxlCwx","quoted_status_full_text":null,"retweeted_status_full_text":null},{"locale":"zh-Hant","full_text":"在哥倫布1492年的航行之前，沒有證據證明北歐以外的任何人聽說過美洲。直到現在https://t.co/uC46pxlCwx","quoted_status_full_text":null,"retweeted_status_full_text":null}]}}]}},"pageContext":{"basePath":"/","pageType":"home","tagsFilter":{"date":{"gt":"2000-12-25T10:54:58.000Z"}},"filter":{"date":{"gt":"2000-12-25T10:54:58.000Z"}},"limit":50,"skip":1300,"totalPages":27,"total":1302,"currentPage":27,"maxWidth":1024,"maxHeight":512,"siteMetadata":null,"locale":"zh-Hant","hrefLang":"zh-Hant","originalPath":"/page/27","dateFormat":"YYYY-MM-DD"}},
    "staticQueryHashes": ["1239077767","2744905544","3025052997","3280999885"]}